<svg width="34" height="34" viewBox="0 0 34 34" fill="none" xmlns="http://www.w3.org/2000/svg">
<path fill-rule="evenodd" clip-rule="evenodd" d="M33.5333 9.08354V9.30021L31.1 18.3002C30.8124 19.3684 30.1787 20.3111 29.298 20.9806C28.4174 21.6502 27.3396 22.0087 26.2333 22.0002H13.4833C12.2317 22.0053 11.0236 21.5407 10.0978 20.6983C9.17208 19.8558 8.59597 18.6968 8.48333 17.4502L7.4 5.18354C7.36245 4.768 7.17041 4.38166 6.86183 4.10085C6.55324 3.82004 6.15056 3.66518 5.73333 3.66687H2.11666C1.67464 3.66687 1.25071 3.49128 0.938152 3.17872C0.625592 2.86616 0.449997 2.44223 0.449997 2.0002C0.449997 1.55818 0.625592 1.13425 0.938152 0.821693C1.25071 0.509132 1.67464 0.333537 2.11666 0.333537H5.73333C6.98501 0.328459 8.19307 0.793033 9.11882 1.63547C10.0446 2.47791 10.6207 3.63693 10.7333 4.88354V5.33354H30.2167C30.6918 5.32981 31.1622 5.4277 31.5964 5.62063C32.0306 5.81357 32.4185 6.09711 32.7342 6.45222C33.0498 6.80734 33.2859 7.22584 33.4266 7.67966C33.5673 8.13348 33.6094 8.61214 33.55 9.08354H33.5333ZM12.1167 33.6668C14.4179 33.6668 16.2833 31.8013 16.2833 29.5002C16.2833 27.199 14.4179 25.3335 12.1167 25.3335C9.81548 25.3335 7.95 27.199 7.95 29.5002C7.95 31.8013 9.81548 33.6668 12.1167 33.6668ZM29.6167 29.5002C29.6167 31.8013 27.7512 33.6668 25.45 33.6668C23.1488 33.6668 21.2833 31.8013 21.2833 29.5002C21.2833 27.199 23.1488 25.3335 25.45 25.3335C27.7512 25.3335 29.6167 27.199 29.6167 29.5002Z" fill="#F8FDFE"/>
</svg>
