<svg width="10" height="9" viewBox="0 0 10 9" fill="none" xmlns="http://www.w3.org/2000/svg">
<path d="M5.11667 8.66683C7.41786 8.66683 9.28334 6.80135 9.28334 4.50016C9.28334 2.19898 7.41786 0.333496 5.11667 0.333496C2.81548 0.333496 0.950005 2.19898 0.950005 4.50016C0.950005 6.80135 2.81548 8.66683 5.11667 8.66683Z" fill="#F8FDFE"/>
</svg>
